<svg width="2198" height="500" viewBox="0 0 2198 500" fill="none" xmlns="http://www.w3.org/2000/svg">
<path d="M250 44L23 437.5H477L250 44Z" stroke="white" stroke-width="35" stroke-linecap="round" stroke-linejoin="round"/>
<path d="M185.5 161.5C197.5 169.833 226 182.5 244 166.5C266.5 146.5 280 153.5 293.5 161.5C304.3 167.9 313.5 167.5 320.5 166.5" stroke="white" stroke-width="35" stroke-linecap="round" stroke-linejoin="round"/>
<path d="M660.666 360.88C646.842 360.88 634.554 359.152 623.802 355.696C613.05 352.24 602.97 346.384 593.562 338.128C588.378 333.52 585.786 328.432 585.786 322.864C585.786 318.448 587.418 314.608 590.682 311.344C593.946 307.888 597.882 306.16 602.49 306.16C606.138 306.16 609.402 307.312 612.282 309.616C619.962 315.952 627.45 320.56 634.746 323.44C642.042 326.32 650.682 327.76 660.666 327.76C671.418 327.76 680.634 325.36 688.314 320.56C696.186 315.76 700.122 309.808 700.122 302.704C700.122 294.064 696.282 287.344 688.602 282.544C680.922 277.552 668.73 273.808 652.026 271.312C609.978 265.168 588.954 245.584 588.954 212.56C588.954 200.464 592.122 190 598.458 181.168C604.794 172.144 613.434 165.328 624.378 160.72C635.322 155.92 647.514 153.52 660.954 153.52C673.05 153.52 684.378 155.344 694.938 158.992C705.69 162.64 714.618 167.44 721.722 173.392C727.29 177.808 730.074 182.896 730.074 188.656C730.074 193.072 728.442 197.008 725.178 200.464C721.914 203.728 718.074 205.36 713.658 205.36C710.778 205.36 708.186 204.496 705.882 202.768C700.89 198.736 693.882 195.088 684.858 191.824C676.026 188.368 668.058 186.64 660.954 186.64C648.858 186.64 639.45 188.944 632.73 193.552C626.202 197.968 622.938 203.824 622.938 211.12C622.938 219.376 626.298 225.616 633.018 229.84C639.93 234.064 650.682 237.52 665.274 240.208C681.786 243.088 694.938 246.832 704.73 251.44C714.714 255.856 722.202 262 727.194 269.872C732.186 277.552 734.682 287.824 734.682 300.688C734.682 312.784 731.226 323.44 724.314 332.656C717.594 341.68 708.57 348.688 697.242 353.68C685.914 358.48 673.722 360.88 660.666 360.88ZM920.637 156.4C925.245 156.4 928.989 157.936 931.869 161.008C934.749 164.08 936.189 167.92 936.189 172.528V340.432C936.189 345.424 934.461 349.648 931.005 353.104C927.741 356.368 923.613 358 918.621 358C915.933 358 913.245 357.616 910.557 356.848C908.061 355.888 906.237 354.64 905.085 353.104L799.389 218.896V341.872C799.389 346.48 797.853 350.32 794.781 353.392C791.901 356.464 788.061 358 783.261 358C778.653 358 774.909 356.464 772.029 353.392C769.149 350.32 767.709 346.48 767.709 341.872V173.968C767.709 168.976 769.341 164.848 772.605 161.584C776.061 158.128 780.285 156.4 785.277 156.4C788.157 156.4 790.941 156.976 793.629 158.128C796.509 159.28 798.621 160.816 799.965 162.736L904.797 296.368V172.528C904.797 167.92 906.237 164.08 909.117 161.008C912.189 157.936 916.029 156.4 920.637 156.4ZM1164.96 257.2C1164.96 276.208 1160.74 293.68 1152.29 309.616C1143.84 325.36 1132.13 337.84 1117.15 347.056C1102.37 356.272 1085.67 360.88 1067.04 360.88C1048.42 360.88 1031.62 356.272 1016.64 347.056C1001.86 337.84 990.243 325.36 981.795 309.616C973.539 293.68 969.411 276.208 969.411 257.2C969.411 238.192 973.539 220.816 981.795 205.072C990.243 189.136 1001.86 176.56 1016.64 167.344C1031.62 158.128 1048.42 153.52 1067.04 153.52C1085.67 153.52 1102.37 158.128 1117.15 167.344C1132.13 176.56 1143.84 189.136 1152.29 205.072C1160.74 220.816 1164.96 238.192 1164.96 257.2ZM1127.52 257.2C1127.52 244.336 1124.93 232.72 1119.75 222.352C1114.56 211.792 1107.36 203.44 1098.15 197.296C1088.93 191.152 1078.56 188.08 1067.04 188.08C1055.33 188.08 1044.87 191.152 1035.65 197.296C1026.63 203.248 1019.52 211.504 1014.34 222.064C1009.35 232.624 1006.85 244.336 1006.85 257.2C1006.85 270.064 1009.35 281.776 1014.34 292.336C1019.52 302.896 1026.63 311.248 1035.65 317.392C1044.87 323.344 1055.33 326.32 1067.04 326.32C1078.56 326.32 1088.93 323.248 1098.15 317.104C1107.36 310.96 1114.56 302.704 1119.75 292.336C1124.93 281.776 1127.52 270.064 1127.52 257.2ZM1423.27 155.536C1427.88 155.536 1432.1 157.36 1435.94 161.008C1439.98 164.464 1441.99 168.88 1441.99 174.256C1441.99 175.984 1441.7 177.904 1441.13 180.016L1384.39 347.056C1383.24 350.32 1381.22 352.912 1378.34 354.832C1375.46 356.752 1372.3 357.808 1368.84 358C1365.38 358 1362.12 357.04 1359.05 355.12C1355.98 353.2 1353.58 350.416 1351.85 346.768L1310.95 253.744L1269.77 346.768C1268.04 350.416 1265.64 353.2 1262.57 355.12C1259.5 357.04 1256.23 358 1252.78 358C1249.32 357.808 1246.15 356.752 1243.27 354.832C1240.39 352.912 1238.38 350.32 1237.22 347.056L1180.49 180.016C1179.91 177.904 1179.62 175.984 1179.62 174.256C1179.62 168.88 1181.54 164.464 1185.38 161.008C1189.42 157.36 1193.83 155.536 1198.63 155.536C1202.47 155.536 1205.93 156.592 1209 158.704C1212.07 160.624 1214.18 163.312 1215.34 166.768L1258.25 296.944L1295.69 207.088C1297.22 203.632 1299.43 200.944 1302.31 199.024C1305.19 196.912 1308.46 195.952 1312.1 196.144C1315.75 195.952 1318.92 196.912 1321.61 199.024C1324.49 200.944 1326.7 203.632 1328.23 207.088L1363.66 296.08L1406.28 166.768C1407.43 163.312 1409.54 160.624 1412.62 158.704C1415.88 156.592 1419.43 155.536 1423.27 155.536ZM1608.02 166.192C1613.97 169.264 1616.94 174.16 1616.94 180.88C1616.94 184.912 1615.5 188.848 1612.62 192.688C1609.55 196.72 1605.62 198.736 1600.82 198.736C1597.55 198.736 1594.29 197.872 1591.02 196.144C1581.62 191.728 1571.44 189.52 1560.5 189.52C1547.06 189.52 1535.34 192.4 1525.36 198.16C1515.38 203.728 1507.7 211.696 1502.32 222.064C1496.94 232.24 1494.26 243.952 1494.26 257.2C1494.26 279.856 1500.3 297.04 1512.4 308.752C1524.69 320.464 1540.72 326.32 1560.5 326.32C1572.21 326.32 1582.38 324.112 1591.02 319.696C1594.48 318.16 1597.55 317.392 1600.24 317.392C1605.23 317.392 1609.46 319.504 1612.91 323.728C1615.79 327.376 1617.23 331.312 1617.23 335.536C1617.23 338.608 1616.46 341.392 1614.93 343.888C1613.39 346.384 1611.18 348.304 1608.3 349.648C1593.33 357.136 1577.39 360.88 1560.5 360.88C1541.68 360.88 1524.4 356.944 1508.66 349.072C1492.91 341.008 1480.34 329.2 1470.93 313.648C1461.52 298.096 1456.82 279.28 1456.82 257.2C1456.82 237.616 1461.23 220.048 1470.06 204.496C1479.09 188.944 1491.47 176.848 1507.22 168.208C1522.96 159.376 1540.72 154.96 1560.5 154.96C1577.58 154.96 1593.42 158.704 1608.02 166.192ZM1793.48 156.4C1798.85 156.4 1803.17 158.032 1806.44 161.296C1809.7 164.56 1811.33 168.784 1811.33 173.968V340.432C1811.33 345.424 1809.6 349.648 1806.15 353.104C1802.69 356.368 1798.28 358 1792.9 358C1788.1 358 1783.97 356.368 1780.52 353.104C1777.06 349.648 1775.33 345.424 1775.33 340.432V273.328H1683.46V340.432C1683.46 345.424 1681.64 349.648 1677.99 353.104C1674.34 356.368 1670.12 358 1665.32 358C1660.13 358 1655.81 356.368 1652.36 353.104C1649.09 349.648 1647.46 345.424 1647.46 340.432V173.968C1647.46 168.976 1649.19 164.848 1652.64 161.584C1656.1 158.128 1660.52 156.4 1665.89 156.4C1670.69 156.4 1674.82 158.128 1678.28 161.584C1681.73 164.848 1683.46 168.976 1683.46 173.968V240.208H1775.33V173.968C1775.33 168.976 1777.16 164.848 1780.8 161.584C1784.45 158.128 1788.68 156.4 1793.48 156.4ZM2012.57 335.536C2013.53 338.032 2014.01 340.336 2014.01 342.448C2014.01 347.44 2012.38 351.568 2009.12 354.832C2005.85 357.904 2002.11 359.44 1997.88 359.44C1994.43 359.44 1991.26 358.384 1988.38 356.272C1985.69 354.16 1983.58 351.28 1982.04 347.632L1967.07 312.784H1881.24L1866.27 347.92C1864.92 351.568 1862.81 354.448 1859.93 356.56C1857.24 358.48 1854.27 359.44 1851 359.44C1846.01 359.44 1842.17 358.096 1839.48 355.408C1836.99 352.72 1835.74 349.072 1835.74 344.464C1835.74 342.736 1836.03 340.912 1836.6 338.992L1908.32 166.768C1909.85 162.928 1912.16 159.952 1915.23 157.84C1918.3 155.728 1921.76 154.864 1925.6 155.248C1929.05 155.248 1932.22 156.304 1935.1 158.416C1938.17 160.336 1940.38 163.12 1941.72 166.768L2012.57 335.536ZM1952.96 279.664L1923.87 212.272L1895.36 279.664H1952.96ZM2156.53 156.4C2161.72 156.4 2165.94 157.936 2169.21 161.008C2172.47 164.08 2174.1 168.112 2174.1 173.104C2174.1 178.096 2172.47 182.128 2169.21 185.2C2165.94 188.08 2161.72 189.52 2156.53 189.52H2111.32V340.432C2111.32 345.424 2109.49 349.648 2105.85 353.104C2102.2 356.368 2097.69 358 2092.31 358C2086.93 358 2082.52 356.368 2079.06 353.104C2075.61 349.648 2073.88 345.424 2073.88 340.432V189.52H2028.66C2023.48 189.52 2019.25 187.984 2015.99 184.912C2012.73 181.84 2011.09 177.808 2011.09 172.816C2011.09 168.016 2012.73 164.08 2015.99 161.008C2019.45 157.936 2023.67 156.4 2028.66 156.4H2156.53Z" fill="white"/>
</svg>
