<svg width="500" height="500" viewBox="0 0 500 500" fill="none" xmlns="http://www.w3.org/2000/svg">
<path d="M250 44L23 437.5H477L250 44Z" stroke="#664EFD" stroke-width="35" stroke-linecap="round" stroke-linejoin="round"/>
<path d="M185.5 161.5C197.5 169.833 226 182.5 244 166.5C266.5 146.5 280 153.5 293.5 161.5C304.3 167.9 313.5 167.5 320.5 166.5" stroke="#664EFD" stroke-width="35" stroke-linecap="round" stroke-linejoin="round"/>
</svg>
